{
    "faces": [42,5,1,21,0,4,0,1,0,1,2,42,21,23,20,0,1,2,3,2,3,4,42,21,20,5,0,1,3,4,2,4,0,43,2,6,7,3,0,5,6,7,8,5,6,7,8,43,17,10,12,15,0,9,10,11,12,9,10,11,12,43,3,7,13,11,0,13,14,15,16,8,7,13,14,43,11,13,17,15,0,17,18,19,20,14,13,9,12,42,11,21,1,0,25,21,22,14,2,1,42,1,2,3,0,22,23,24,1,5,8,42,1,3,11,0,22,24,25,1,8,14,43,19,4,72,69,0,26,27,28,29,15,16,17,18,42,19,13,9,0,34,30,31,15,13,19,42,9,28,4,0,31,32,33,19,20,16,42,9,4,19,0,31,33,34,19,16,15,42,16,22,14,0,35,36,37,21,22,23,43,24,27,94,93,0,38,39,40,41,24,25,26,27,43,0,21,25,26,0,44,45,42,43,28,2,29,30,43,27,24,25,26,0,46,47,48,49,25,24,29,30,43,24,23,21,25,0,50,51,52,53,24,3,2,29,42,12,14,26,0,57,54,43,11,23,30,42,26,0,11,0,43,44,55,30,28,14,42,11,15,12,0,55,56,57,14,12,11,42,26,11,12,0,43,55,57,30,14,11,43,10,17,67,66,0,58,59,60,61,10,9,31,32,43,20,92,91,28,0,62,63,64,65,4,33,34,20,42,12,10,18,0,70,66,67,11,10,35,42,18,16,14,0,67,68,69,35,21,23,42,18,14,12,0,67,69,70,35,23,11,43,34,33,32,29,0,71,72,73,74,36,37,38,39,43,38,5,51,62,0,75,76,77,78,40,0,41,42,43,30,6,37,39,0,79,80,81,82,43,6,44,45,43,49,34,52,64,0,83,84,85,86,46,36,47,48,43,7,31,58,59,0,87,88,89,90,7,49,50,51,43,36,38,41,40,0,91,92,93,94,52,40,53,54,43,37,36,40,39,0,95,96,97,98,44,52,54,45,43,29,32,40,41,0,74,73,99,100,39,38,54,53,43,8,5,38,36,0,101,102,103,104,55,0,40,52,43,6,8,36,37,0,105,106,107,108,6,55,52,44,43,43,45,44,42,0,109,110,111,112,56,57,58,59,43,35,13,42,44,0,113,114,115,116,60,13,59,58,43,31,35,44,45,0,117,118,119,120,49,60,58,57,43,13,7,43,42,0,121,122,123,124,13,7,56,59,43,29,41,63,50,0,74,100,125,126,39,53,61,62,43,48,46,49,47,0,127,128,129,130,63,64,46,65,43,20,28,48,47,0,131,132,133,134,4,20,63,65,43,28,4,46,48,0,135,136,137,138,20,16,64,63,43,4,34,49,46,0,139,84,83,140,16,36,46,64,43,51,50,63,62,0,141,142,143,144,41,62,61,42,43,51,53,52,50,0,145,146,147,148,41,41,47,62,43,39,40,33,31,0,149,150,151,152,45,54,37,49,43,31,7,54,55,0,88,87,153,154,49,7,8,66,43,57,55,54,56,0,155,156,157,158,67,66,8,5,43,37,39,57,56,0,159,160,161,162,44,45,67,5,43,7,37,56,54,0,163,164,165,166,7,44,5,8,43,39,31,55,57,0,149,152,167,168,45,49,66,67,43,59,58,60,61,0,169,170,171,172,51,50,68,69,43,43,7,59,61,0,173,174,175,176,56,7,51,69,43,31,45,60,58,0,117,120,177,178,49,57,68,50,43,45,43,61,60,0,179,180,181,182,57,56,69,68,43,52,53,65,64,0,183,184,185,186,47,41,30,48,43,41,38,62,63,0,187,188,189,190,53,40,42,61,43,20,47,65,53,0,191,192,193,194,4,65,30,41,43,47,49,64,65,0,195,196,197,198,65,46,48,30,43,5,20,53,51,0,199,200,201,202,0,4,41,41,43,34,29,50,52,0,71,74,126,203,36,39,62,47,43,69,72,71,68,0,204,205,206,207,18,17,70,71,42,68,66,67,0,212,208,209,71,32,31,42,67,70,69,0,209,210,211,31,72,18,42,67,69,68,0,209,211,212,31,18,71,43,66,68,80,81,0,208,212,213,214,32,71,73,74,43,16,79,88,83,0,215,216,217,218,21,75,76,77,43,67,17,73,74,0,60,59,219,220,31,9,78,79,43,13,19,69,70,0,221,26,29,222,13,15,18,72,43,16,18,77,79,0,223,224,225,226,21,35,80,75,43,73,75,76,74,0,227,228,229,230,78,81,82,79,43,17,13,75,73,0,231,232,233,234,9,13,81,78,43,70,67,74,76,0,210,209,235,236,72,31,79,82,43,13,70,76,75,0,221,222,237,238,13,72,82,81,43,79,77,80,82,0,239,240,241,242,75,80,73,83,43,77,78,81,80,0,243,244,245,246,80,84,74,73,43,72,4,84,86,0,28,27,247,248,17,16,85,86,43,10,66,81,78,0,58,61,249,250,10,32,74,84,43,68,71,82,80,0,207,206,251,252,71,70,83,73,43,18,10,78,77,0,253,254,255,256,35,10,84,80,43,78,73,74,81,0,257,258,259,260,84,78,79,74,43,66,81,74,67,0,261,262,263,264,32,74,79,31,43,78,10,17,73,0,265,266,267,268,84,10,9,78,43,84,83,85,86,0,269,270,271,272,85,77,87,86,43,85,83,88,87,0,273,274,275,276,87,77,76,88,43,71,72,86,85,0,206,205,277,278,70,17,86,87,43,82,71,85,87,0,251,206,278,279,83,70,87,88,43,4,16,83,84,0,280,281,282,283,16,21,77,85,43,79,82,87,88,0,284,285,286,287,75,83,88,76,43,89,90,91,92,0,288,289,290,291,89,90,34,33,43,93,94,96,95,0,292,293,294,295,27,26,91,92,42,6,2,1,0,300,296,297,6,5,1,42,1,5,8,0,297,298,299,1,0,55,42,1,8,6,0,297,299,300,1,55,6,42,94,27,26,0,311,301,302,26,25,30,42,26,14,16,0,302,303,304,30,23,21,42,16,46,48,0,304,305,306,21,64,63,42,48,28,91,0,306,307,308,63,20,34,42,91,90,96,0,308,309,310,34,90,91,42,94,26,16,0,311,302,304,26,30,21,42,48,91,96,0,306,308,310,63,34,91,42,96,94,16,0,310,311,304,91,26,21,42,16,48,96,0,304,306,310,21,63,91,43,90,89,95,96,0,289,288,312,313,90,89,92,91,43,98,97,99,100,0,314,315,316,317,1,41,93,94,43,92,23,98,100,0,318,319,320,321,33,3,1,94,43,89,92,100,99,0,288,291,322,323,89,33,94,93,43,23,24,97,98,0,324,325,326,327,3,24,41,1,43,101,102,104,103,0,328,329,330,331,93,41,95,29,43,95,89,101,103,0,312,288,332,333,92,89,93,29,43,24,93,104,102,0,334,335,336,337,24,27,95,41,43,93,95,103,104,0,338,339,340,341,27,92,29,95],
    "materials": [{
        "DbgIndex": 0,
        "colorEmissive": [0,0,0],
        "mapDiffuseWrap": ["RepeatWrapping","RepeatWrapping"],
        "DbgName": "Material",
        "shading": "phong",
        "depthTest": true,
        "colorDiffuse": [0.64,0.64,0.64],
        "visible": true,
        "blending": "NormalBlending",
        "DbgColor": 15658734,
        "mapDiffuseAnisotropy": 1,
        "specularCoef": 50,
        "opacity": 1,
        "mapDiffuseRepeat": [1,1],
        "colorSpecular": [0.5,0.5,0.5],
        "transparent": false,
        "depthWrite": true,
        "mapDiffuse": "maisonCfini1-1.png",
        "wireframe": false
    }],
    "vertices": [0.228549,-0.022128,0.005247,0.540274,-0.022128,0.986613,-0.447884,-0.022128,0.986613,-0.447884,-0.022128,0.005248,0.228549,1.39898,0.00938,0.540273,0.966031,0.986615,-0.447884,0.96603,0.986612,-0.447884,0.96603,0.005247,0.046194,1.5649,0.986613,0.046195,1.5649,0.005247,-0.10819,1.40158,-0.943536,-0.327127,-0.022128,0.005248,-0.108191,-0.022128,-0.943537,-0.327125,1.10362,0.005247,0.228547,-0.022128,-0.943537,-0.327127,-0.022128,-0.490974,0.228549,1.40158,-0.943536,-0.327124,1.10362,-0.490976,0.060177,1.64222,-0.943536,0.060177,1.64221,0.005247,0.540274,0.966031,0.00525,0.540274,-0.022128,0.005248,0.228548,0.966031,-0.943537,0.540274,0.701842,0.005248,0.540274,0.701842,-0.795313,0.540274,-0.022128,-0.795313,0.228548,-0.022128,-0.795313,0.228549,0.966031,-0.795313,0.228549,1.34314,0.005247,0.540273,1.01544,0.986613,-0.447884,1.01544,0.986612,-0.447884,1.00562,0.005247,0.046194,1.61431,0.986613,0.046195,1.60648,-0.004554,0.540274,1.02173,-0.005109,-0.327126,1.15234,0.005247,0.046194,1.5649,1.03602,-0.447884,0.96603,1.03602,0.540273,0.966031,1.03602,-0.447884,1.01544,1.03602,0.046194,1.61431,1.03602,0.540273,1.01544,1.03602,-0.327126,1.10362,-0.04416,-0.447884,0.96603,-0.04416,-0.327126,1.14931,-0.04416,-0.447884,1.00885,-0.04416,0.228549,1.40411,-0.044161,0.540273,0.96603,-0.044158,0.228548,1.34314,-0.04416,0.540273,1.01797,-0.04416,0.589682,1.01544,0.986611,0.589682,0.966031,0.986613,0.589682,1.01544,0.005245,0.589682,0.966031,0.005248,-0.497292,0.96603,0.005247,-0.497292,1.01544,0.005247,-0.497292,0.96603,1.03602,-0.497292,1.01544,1.03602,-0.497292,1.01544,0.005248,-0.497292,0.96603,0.005248,-0.497292,1.01257,-0.04416,-0.497292,0.96603,-0.04416,0.589682,0.966031,1.03602,0.589682,1.01544,1.03602,0.589681,1.01544,-0.044163,0.589681,0.96603,-0.04416,-0.107679,1.45098,-0.943716,-0.326613,1.15303,-0.491155,0.060688,1.69162,-0.943716,0.060688,1.69739,0.005068,-0.326614,1.1588,0.005068,0.22906,1.45098,-0.943716,0.22906,1.45098,0.005068,-0.376533,1.10431,-0.490976,-0.376022,1.15372,-0.491155,-0.376532,1.10431,0.005247,-0.376022,1.15372,0.005068,0.060182,1.642,-0.992855,-0.108185,1.40135,-0.976431,0.228554,1.40135,-0.992855,0.060693,1.6914,-0.993035,-0.107674,1.45076,-0.976611,0.229065,1.45076,-0.993035,0.277957,1.40079,-0.943531,0.277957,1.40079,0.005253,0.278468,1.4502,-0.943711,0.278468,1.4502,0.005073,0.278473,1.44998,-0.99303,0.277962,1.40057,-0.99285,0.540274,0.751249,-0.795313,0.228549,1.01544,-0.795313,0.22855,1.01544,0.005247,0.540274,0.75125,0.005248,0.540274,0.701842,-0.844721,0.228549,0.966031,-0.844721,0.540274,0.751249,-0.844721,0.228549,1.01544,-0.844721,0.589682,0.701842,-0.795313,0.589682,0.701842,0.005248,0.589682,0.751249,-0.795313,0.589682,0.75125,0.005248,0.589682,0.751249,-0.795313,0.589682,0.701842,-0.795313,0.589682,0.751249,-0.844721,0.589682,0.701842,-0.844721],
    "normals": [0.074404,-0.858089,0.508011,0.577349,-0.577349,0.577349,1,0,0,0.904508,-0.301492,0.301492,0.074587,-0.858241,-0.507767,-0.577349,-0.577349,0.577349,-0.589007,-0.305094,0.748283,-0.080538,-0.862362,-0.499802,-0.577349,-0.577349,-0.577349,-0.617847,-0.517502,-0.591937,-0.394269,-0.480178,-0.783532,-0.423078,-0.604816,-0.674673,-0.73217,-0.660085,-0.167791,0.357952,-0.806513,0.470473,-0.301523,-0.904508,-0.301523,0.012482,0.015198,0.999786,-0.063356,-0.087191,0.994171,0.295389,0.518448,0.802423,0.018372,0.833949,0.5515,-0.025178,-0.014191,0.999573,-0.789941,-0.613147,0.000305,0.057466,-0.847072,-0.528306,-0.866909,0,0.498398,0.577288,-0.57738,-0.577319,0.112583,-0.880123,-0.461135,0.351329,-0.758293,-0.54912,0.211127,-0.455702,-0.864711,-0.265358,-0.723563,-0.637165,-0.123539,0.986267,-0.1095,0.577349,0.577349,-0.577349,0.577319,-0.577349,-0.577349,-0.668081,0.699362,-0.253945,-0.818354,0.570177,0.071749,0.334941,0.913236,0.231849,0.709311,0.328623,-0.623585,6.1e-05,-0.828974,-0.559252,0.469466,0.88287,-0.00943,0.001862,0.999969,-0.004608,0.769494,0.63863,-0.000244,0.4391,0.898404,0.000732,-0.333659,-0.707846,0.622547,0.707083,-0.707083,0,0.577349,-0.577319,0.577349,-1,0,0,-0.104312,-0.746788,0.656789,-0.484268,0.471877,0.736717,0.26487,0.509873,-0.818445,0.733696,0.679342,-0.011292,0.598163,0.544267,-0.588153,-0.368145,0.929746,-0.001526,-0.531846,0.631519,0.564165,-0.577319,-0.577349,0.577349,0,-0.377514,0.925993,0.24604,0.521897,0.816736,0.001495,0.824061,0.566485,0,-0.823054,0.567949,0.322031,-0.711112,-0.624958,-0.20777,0.527177,-0.823939,0.298898,0.789026,-0.536699,0.722373,-0.272042,-0.635701,0.330607,0.943754,0.001831,0.577349,0.577349,0.577319,0.718345,0.695639,0.001099,-0.415906,-0.343791,-0.841884,0.734397,0.555254,-0.390271,-0.333323,-0.707968,-0.622578,-0.561418,0.619922,-0.548173,-0.539232,0.595416,0.595538,-0.548418,0.604755,-0.577441,-0.577349,-0.577349,-0.577319,0.470443,0.882412,-0.002441,0.003845,0.999969,-0.006012,-0.279855,0.511826,0.812189,-0.006287,0.821253,-0.570513,-0.802759,0.292032,-0.519822,-0.36906,-0.696799,-0.614978,0.569872,-0.587359,-0.574633,0.702963,-0.711203,0.001129,-0.526139,-0.599322,-0.603259,-0.748222,0.514878,-0.418348,-0.055177,-0.333964,-0.940947,-0.584063,-0.569262,0.5786,-0.579882,0.561205,0.590533,0.26191,0.495956,-0.827906,-0.625111,-0.488174,-0.608997,0.587909,-0.569597,0.574328,0.592822,0.578234,0.560503,0.715781,0.698294,-0.001526,0.584796,0.567186,-0.579882,0.34431,0.938841,0,0.907315,0.420362,0,0.868007,0.402142,-0.291208,0.209571,0.571459,-0.79339,0.707083,0.707083,0,0.577349,0.577349,0.577349,0.577349,-0.577349,-0.577349],
    "uvs": [[0.454817,0.188624,0.692008,0.188624,0.692008,0.363604,0.692008,0.427457,0.454817,0.427457,0.957555,0.420723,0.718722,0.420725,0.71872,0.183534,0.957552,0.183532,0.414183,0.275689,0.292674,0.347703,0.292674,0.003601,0.414184,0.003601,0.073357,0.085205,0.193698,0.291504,0.185243,0.334935,0.048147,0.099911,0.646758,0.027895,0.918846,0.027895,0.918846,0.14783,0.646758,0.147829,0.262188,0.057341,0.262188,0.294533,0.023356,0.294533,0.023356,0.057342,0.052541,0.057342,0.535048,0.947603,0.511304,0.880708,0.5211,0.887538,0.544845,0.954434,0.841416,0.838819,0.966345,0.909272,0.987599,0.843214,0.992797,0.856346,0.976365,0.925403,0.229241,0.931825,0.229206,0.929808,0.229241,0.929808,0.749589,0.944179,0.650829,0.944179,0.650829,0.932237,0.749589,0.932237,0.009779,0.38166,0.085121,0.38166,0.085121,0.188169,0.009779,0.188169,0.129423,0.352158,0.054081,0.288305,0.054081,0.113326,0.129423,0.113325,0.616223,0.181872,0.422732,0.181872,0.422732,0.006892,0.616223,0.006892,0.085121,0.417485,0.219425,0.188169,0.219425,0.308103,0.166509,0.417485,0.43031,0.879596,0.289118,0.883532,0.294999,0.873139,0.436191,0.869202,0.190791,0.162949,0.223865,0.122938,0.241254,0.220156,0.190791,0.281203,0.170511,0.361612,0.129818,0.419773,0.089123,0.361612,0.089123,0.01751,0.170511,0.01751,0.252039,0.491092,0.25204,0.678739,0.014849,0.678739,0.014847,0.491094,0.146837,0.956304,0.146837,0.944363,0.158778,0.944362,0.158778,0.956304,0.378702,0.937352,0.366761,0.937352,0.366761,0.925411,0.378702,0.925411,0.266402,0.490876,0.25446,0.490876,0.25446,0.478935,0.266402,0.478935,0.422219,0.926043,0.422219,0.937985,0.410277,0.937985,0.410277,0.926043,0.740537,0.992083,0.552893,0.99174,0.562118,0.984157,0.749763,0.984501,0.544092,0.970141,0.731738,0.970141,0.740949,0.977741,0.553303,0.977741,0.002907,0.678739,0.002906,0.491094,0.358048,0.964896,0.170402,0.964896,0.170402,0.952954,0.358048,0.952954,0.170402,0.939992,0.358048,0.939992,0.358048,0.951934,0.170402,0.951933,0.111028,0.966435,0.120003,0.958558,0.16425,0.958558,0.155275,0.966435,0.474607,0.936205,0.474607,0.924263,0.486549,0.924263,0.486549,0.936204,0.745819,0.480816,0.745819,0.525062,0.733877,0.525062,0.733877,0.480816,0.119823,0.956304,0.075576,0.956304,0.075576,0.944363,0.119822,0.944363,0.002907,0.479152,0.014848,0.479152,0.208761,0.97196,0.219646,0.980959,0.099711,0.979568,0.090507,0.97196,0.769083,0.931216,0.650829,0.931216,0.650829,0.919275,0.769083,0.919275,0.45792,0.902164,0.463118,0.915296,0.474222,0.910901,0.469024,0.897769,0.25446,0.61082,0.266402,0.61082,0.952064,0.953702,0.952065,0.965644,0.940123,0.965644,0.940123,0.953702,0.757059,0.982008,0.99425,0.981998,0.994251,0.993939,0.75706,0.99395,0.995418,0.480102,0.995418,0.667749,0.746286,0.667749,0.746286,0.480102,0.434161,0.926043,0.434161,0.937985,0.745183,0.96738,0.994314,0.96738,0.994314,0.979322,0.745183,0.979322,0.994377,0.954099,0.994377,0.96604,0.982435,0.96604,0.982435,0.954099,0.540958,0.980207,0.291825,0.980207,0.291825,0.968266,0.540958,0.968266,0.746286,0.468161,0.995418,0.46816,0.969201,0.95395,0.981142,0.95395,0.981142,0.965891,0.969201,0.965891,0.015262,0.986567,0.027204,0.986567,0.027204,0.998509,0.015262,0.998509,0.733877,0.468874,0.745819,0.468874,0.303382,0.931174,0.29144,0.931174,0.29144,0.919232,0.303382,0.919232,0.925945,0.965972,0.925944,0.95403,0.937886,0.95403,0.937886,0.965972,0.955005,0.966028,0.955005,0.954087,0.966947,0.954087,0.966947,0.966028,0.133874,0.956304,0.133874,0.944363,0.145815,0.944362,0.145816,0.956304,0.051394,0.998302,0.051394,0.98636,0.063336,0.98636,0.063336,0.998302,0.759875,0.936535,0.997067,0.936526,0.997068,0.948468,0.759876,0.948477,0.25204,0.479151,0.255049,0.70267,0.255051,0.631693,0.484398,0.631688,0.48434,0.702676,0.511612,0.631602,0.621002,0.542248,0.740937,0.542248,0.740937,0.702586,0.511621,0.702586,0.4997,0.702544,0.503661,0.631559,0.251076,0.968672,0.251076,0.980593,0.239133,0.980593,0.239133,0.968673,0.278745,0.877613,0.284626,0.867219,0.374713,0.948283,0.384509,0.955113,0.00357,0.944384,0.074555,0.944384,0.07451,0.956304,0.003526,0.956304,0.34021,0.918212,0.220275,0.918212,0.220319,0.906269,0.340254,0.906269,0.770763,0.918254,0.650829,0.918253,0.650829,0.906311,0.770763,0.90631,0.621002,0.530305,0.740937,0.530305,0.377715,0.964935,0.367919,0.958104,0.557439,0.935594,0.628424,0.935594,0.638138,0.942541,0.567153,0.942541,0.074992,0.980113,0.003897,0.980112,0.01374,0.973349,0.084835,0.973349,0.51808,0.870873,0.527876,0.877703,0.443098,0.873138,0.437217,0.883532,0.49632,0.631666,0.496254,0.702641,0.628437,0.955483,0.557454,0.955224,0.557439,0.947274,0.628437,0.943562,0.802907,0.90529,0.650829,0.90529,0.656552,0.894808,0.808631,0.894808,0.512618,0.629128,0.504694,0.629387,0.616396,0.530881,0.620212,0.541952,0.945911,0.917938,0.939801,0.923027,0.798675,0.928855,0.793832,0.917938,0.087378,0.985615,0.316693,0.985694,0.316732,0.997636,0.087418,0.997558,0.252097,0.968672,0.264039,0.968672,0.26405,0.980593,0.252107,0.980593,0.255049,0.619749,0.484385,0.619743,0.496302,0.619725,0.320291,0.984801,0.549605,0.984801,0.549603,0.996744,0.32029,0.996744,0.132787,0.944362,0.132853,0.956304,0.12091,0.956304,0.120844,0.944362,0.485353,0.510635,0.485353,0.609396,0.291861,0.609396,0.291861,0.510636,0.003526,0.957325,0.102286,0.957325,0.110007,0.966435,0.011246,0.966435,0.03427,0.034683,0.273102,0.034683,0.273102,0.273516,0.153686,0.418261,0.03427,0.273516,0.057052,0.11942,0.058062,0.358251,0.022237,0.358402,0.020782,0.014303,0.238155,0.013384,0.238215,0.027508,0.250008,0.025632,0.262449,0.103852,0.071362,0.134244,0.059566,0.13612,0.049959,0.129027,0.497294,0.510635,0.497294,0.609396,0.004224,0.907741,0.197714,0.907741,0.197714,0.919682,0.004224,0.919682,0.034722,0.998103,0.034722,0.986161,0.046664,0.986161,0.046664,0.998103,0.291861,0.498694,0.485353,0.498694,0.004224,0.920703,0.197714,0.920703,0.197714,0.932645,0.004224,0.932645,0.330328,0.931174,0.330328,0.919232,0.34227,0.919232,0.34227,0.931174,0.485353,0.498694,0.497294,0.498694,0.069664,0.997432,0.069664,0.985491,0.081606,0.985491,0.081606,0.997432,0.317365,0.931174,0.317365,0.919232,0.329307,0.919232,0.329307,0.931174]],
    "name": "CubeGeometry",
    "metadata": {
        "version": 3,
        "materials": 1,
        "type": "Geometry",
        "generator": "io_three",
        "uvs": 1,
        "faces": 116,
        "vertices": 105,
        "normals": 96
    }
}