{
    "normals": [0,-0.68569,-0.727866,0,0,-1,0.195074,0,-0.980773,0.141972,-0.68569,-0.713889,0.382672,0,-0.923856,0.278542,-0.68569,-0.672475,0.555559,0,-0.831446,0.40437,-0.68569,-0.605213,0.707083,0,-0.707083,0.514695,-0.68569,-0.514664,0.831446,0,-0.555559,0.605213,-0.68569,-0.40437,0.923856,0,-0.382672,0.672475,-0.68569,-0.278542,0.980773,0,-0.195074,0.713889,-0.68569,-0.142003,1,0,0,0.727866,-0.68569,0,0.980773,0,0.195074,0.713889,-0.68569,0.142003,0.923856,0,0.382672,0.672475,-0.68569,0.278542,0.831446,0,0.555559,0.605213,-0.68569,0.40437,0.707083,0,0.707083,0.514664,-0.68569,0.514695,0.555559,0,0.831446,0.40437,-0.68569,0.605182,0.382672,0,0.923856,0.278542,-0.68569,0.672475,0.195074,0,0.980773,0.141972,-0.68569,0.713889,0,0,1,0,-0.68569,0.727866,-0.195074,0,0.980773,-0.141972,-0.68569,0.713889,-0.382672,0,0.923856,-0.278542,-0.68569,0.672475,-0.555559,0,0.831446,-0.40437,-0.68569,0.605182,-0.707083,0,0.707083,-0.514664,-0.68569,0.514695,-0.831446,0,0.555559,-0.605213,-0.68569,0.40437,-0.923856,0,0.382672,-0.672475,-0.68569,0.278542,-0.980773,0,0.195074,-0.713889,-0.68569,0.142003,-1,0,0,-0.727866,-0.68569,0,-0.980773,0,-0.195074,-0.713889,-0.68569,-0.142003,-0.923856,0,-0.382672,-0.672475,-0.68569,-0.278542,-0.831446,0,-0.555559,-0.605213,-0.68569,-0.40437,-0.707083,0,-0.707083,-0.514695,-0.68569,-0.514664,-0.555559,0,-0.831446,-0.40437,-0.68569,-0.605213,-0.382672,0,-0.923856,-0.278542,-0.68569,-0.672475,0.605213,0.68569,-0.40437,0.672475,0.68569,-0.278542,-0.141972,-0.68569,-0.713889,-0.195074,0,-0.980773,0.278542,0.68569,-0.672475,0.142003,0.68569,-0.713889,0,0.68569,-0.727866,-0.142003,0.68569,-0.713889,-0.278542,0.68569,-0.672475,-0.40437,0.68569,-0.605213,-0.514664,0.68569,-0.514664,-0.605213,0.68569,-0.40437,-0.672475,0.68569,-0.278542,-0.713889,0.68569,-0.142003,-0.727866,0.68569,0,-0.713889,0.68569,0.142003,-0.672475,0.68569,0.278542,-0.605213,0.68569,0.40437,-0.514664,0.68569,0.514664,-0.40437,0.68569,0.605213,-0.278542,0.68569,0.672475,-0.141972,0.68569,0.713889,0,0.68569,0.727866,0.141972,0.68569,0.713889,0.278542,0.68569,0.672475,0.40437,0.68569,0.605213,0.514695,0.68569,0.514664,0.605213,0.68569,0.40437,0.672475,0.68569,0.278542,0.713889,0.68569,0.142003,0.727866,0.68569,0,0.713889,0.68569,-0.142003,0.514695,0.68569,-0.514664,0.40437,0.68569,-0.605213],
    "vertices": [0.528797,-0.055952,0.484486,0.528797,0.255045,0.484486,0.531224,-0.055952,0.484725,0.531224,0.255045,0.484725,0.533558,-0.055952,0.485433,0.533558,0.255045,0.485433,0.535708,-0.055952,0.486582,0.535708,0.255045,0.486582,0.537593,-0.055952,0.488129,0.537593,0.255045,0.488129,0.53914,-0.055952,0.490014,0.53914,0.255045,0.490014,0.540289,-0.055952,0.492165,0.540289,0.255045,0.492165,0.540997,-0.055952,0.494498,0.540997,0.255045,0.494498,0.541236,-0.055952,0.496925,0.541236,0.255045,0.496925,0.540997,-0.055952,0.499352,0.540997,0.255045,0.499352,0.540289,-0.055952,0.501685,0.540289,0.255045,0.501685,0.53914,-0.055952,0.503836,0.53914,0.255045,0.503836,0.537593,-0.055952,0.505721,0.537593,0.255045,0.505721,0.535708,-0.055952,0.507267,0.535708,0.255045,0.507267,0.533558,-0.055952,0.508417,0.533558,0.255045,0.508417,0.531224,-0.055952,0.509125,0.531224,0.255045,0.509125,0.528797,-0.055952,0.509364,0.528797,0.255045,0.509364,0.526371,-0.055952,0.509125,0.526371,0.255045,0.509125,0.524037,-0.055952,0.508417,0.524037,0.255045,0.508417,0.521887,-0.055952,0.507267,0.521887,0.255045,0.507267,0.520002,-0.055952,0.505721,0.520002,0.255045,0.505721,0.518455,-0.055952,0.503836,0.518455,0.255045,0.503836,0.517305,-0.055952,0.501685,0.517305,0.255045,0.501685,0.516598,-0.055952,0.499352,0.516598,0.255045,0.499352,0.516358,-0.055952,0.496925,0.516358,0.255045,0.496925,0.516598,-0.055952,0.494498,0.516598,0.255045,0.494498,0.517305,-0.055952,0.492165,0.517305,0.255045,0.492165,0.518455,-0.055952,0.490014,0.518455,0.255045,0.490014,0.520002,-0.055952,0.488129,0.520002,0.255045,0.488129,0.521887,-0.055952,0.486582,0.521887,0.255045,0.486582,0.524037,-0.055952,0.485433,0.524037,0.255045,0.485433,0.526371,-0.055952,0.484725,0.526371,0.255045,0.484725,0.531224,0.955076,0.484725,0.528797,0.955076,0.484486,0.533558,0.955076,0.485433,0.535708,0.955076,0.486582,0.537593,0.955076,0.488129,0.53914,0.955076,0.490014,0.540289,0.955076,0.492165,0.540997,0.955076,0.494498,0.541236,0.955076,0.496925,0.540997,0.955076,0.499352,0.540289,0.955076,0.501685,0.53914,0.955076,0.503836,0.537593,0.955076,0.505721,0.535708,0.955076,0.507267,0.533558,0.955076,0.508417,0.531224,0.955076,0.509125,0.528797,0.955076,0.509364,0.526371,0.955076,0.509125,0.524037,0.955076,0.508417,0.521887,0.955076,0.507267,0.520002,0.955076,0.50572,0.518455,0.955076,0.503836,0.517305,0.955076,0.501685,0.516598,0.955076,0.499352,0.516358,0.955076,0.496925,0.516598,0.955076,0.494498,0.517305,0.955076,0.492165,0.518455,0.955076,0.490014,0.520002,0.955076,0.488129,0.521887,0.955076,0.486582,0.524037,0.955076,0.485433,0.526371,0.955076,0.484725],
    "name": "Circle.001Geometry.1",
    "materials": [{
        "shading": "phong",
        "blending": "NormalBlending",
        "DbgIndex": 0,
        "DbgName": "tige",
        "specularCoef": 50,
        "colorSpecular": [0.5,0.5,0.5],
        "depthTest": true,
        "opacity": 1,
        "wireframe": false,
        "DbgColor": 15658734,
        "depthWrite": true,
        "visible": true,
        "transparent": false,
        "colorEmissive": [0,0,0],
        "colorDiffuse": [0.203322,0.002677,0.011555]
    }],
    "uvs": [[0.635433,0.563066,0.635433,0.642503,0.627647,0.642503,0.627647,0.563066,0.644255,0.40212,0.644255,0.481557,0.636469,0.481557,0.636469,0.40212,0.635433,0.40212,0.635433,0.481557,0.627647,0.481557,0.627647,0.40212,0.626611,0.482593,0.626611,0.56203,0.618825,0.56203,0.618825,0.482593,0.61779,0.241173,0.61779,0.32061,0.610004,0.32061,0.610004,0.241173,0.600144,0.482593,0.600144,0.56203,0.592358,0.56203,0.592358,0.482593,0.608967,0.482593,0.608966,0.56203,0.60118,0.56203,0.60118,0.482593,0.600145,0.241173,0.600144,0.32061,0.592358,0.32061,0.592359,0.241173,0.608966,0.563066,0.608966,0.642503,0.60118,0.642503,0.60118,0.563066,0.617789,0.482593,0.617789,0.56203,0.610003,0.56203,0.610003,0.482593,0.635435,0.160699,0.635435,0.240137,0.627648,0.240137,0.627648,0.160699,0.626612,0.160699,0.626612,0.240137,0.618826,0.240137,0.618826,0.160699,0.626611,0.563066,0.626611,0.642503,0.618825,0.642504,0.618825,0.563067,0.600144,0.40212,0.600144,0.481557,0.592358,0.481557,0.592358,0.40212,0.608968,0.40212,0.608968,0.481557,0.601181,0.481557,0.601182,0.40212,0.600145,0.1607,0.600144,0.240137,0.592358,0.240137,0.592359,0.160699,0.600145,0.321647,0.600144,0.401084,0.592358,0.401084,0.592359,0.321646,0.608968,0.160699,0.608968,0.240137,0.601181,0.240137,0.601182,0.160699,0.608968,0.241173,0.608968,0.32061,0.601182,0.32061,0.601181,0.241173,0.61779,0.160699,0.61779,0.240137,0.610004,0.240137,0.610004,0.160699,0.617789,0.563066,0.617789,0.642504,0.610003,0.642504,0.610003,0.563067,0.600144,0.563066,0.600144,0.642503,0.592358,0.642503,0.592358,0.563066,0.626611,0.40212,0.626611,0.481557,0.618825,0.481557,0.618825,0.40212,0.617789,0.40212,0.617789,0.481557,0.610003,0.481557,0.610003,0.40212,0.626611,0.321647,0.626611,0.401084,0.618825,0.401084,0.618825,0.321647,0.608968,0.321646,0.608968,0.401083,0.601181,0.401083,0.601181,0.321646,0.635435,0.241173,0.635435,0.32061,0.627648,0.32061,0.627648,0.241173,0.635433,0.482593,0.635433,0.56203,0.627647,0.56203,0.627647,0.482593,0.626612,0.241173,0.626612,0.32061,0.618826,0.32061,0.618826,0.241173,0.644255,0.321647,0.644256,0.401084,0.636469,0.401084,0.636469,0.321647,0.130791,0.000518,0.148218,0.000761,0.148218,0.999476,0.130791,0.999233,0.644255,0.563066,0.644255,0.642503,0.636469,0.642503,0.636469,0.563066,0.635433,0.321647,0.635433,0.401084,0.627647,0.401084,0.627647,0.321647,0.606688,0.009342,0.613162,0.005017,0.620355,0.002037,0.627992,0.000518,0.635778,0.000518,0.643415,0.002037,0.650608,0.005017,0.657082,0.009343,0.662588,0.014848,0.666914,0.021322,0.669893,0.028516,0.671412,0.036152,0.671412,0.043939,0.669893,0.051575,0.666914,0.058769,0.662588,0.065243,0.657082,0.070748,0.650608,0.075074,0.643415,0.078054,0.635778,0.079573,0.627992,0.079573,0.620355,0.078054,0.613162,0.075074,0.606688,0.070748,0.601182,0.065243,0.596856,0.058769,0.593877,0.051575,0.592358,0.043938,0.592358,0.036152,0.593877,0.028515,0.596856,0.021322,0.601182,0.014848,0.627992,0.159663,0.620355,0.158144,0.613162,0.155165,0.606688,0.150839,0.601182,0.145333,0.596856,0.138859,0.593877,0.131666,0.592358,0.124029,0.592358,0.116243,0.593877,0.108606,0.596856,0.101413,0.601182,0.094939,0.606688,0.089433,0.613162,0.085107,0.620355,0.082128,0.627992,0.080609,0.635778,0.080609,0.643414,0.082128,0.650608,0.085107,0.657082,0.089433,0.662588,0.094939,0.666914,0.101413,0.669893,0.108606,0.671412,0.116243,0.671412,0.124029,0.669893,0.131666,0.666914,0.138859,0.662588,0.145333,0.657082,0.150839,0.650608,0.155165,0.643415,0.158144,0.635778,0.159663,0.463119,0.000518,0.480546,0.000761,0.480546,0.999475,0.463119,0.999232,0.167716,0.000518,0.185143,0.000761,0.185143,0.999476,0.167716,0.999233,0.555432,0.000518,0.572859,0.000761,0.572859,0.999473,0.555432,0.99923,0.000863,0.000518,0.018289,0.000767,0.017945,0.999482,0.000518,0.999233,0.05694,0.000518,0.074367,0.000761,0.074367,0.999479,0.05694,0.999235,0.223104,0.000518,0.240531,0.000761,0.240531,0.999476,0.223104,0.999232,0.389268,0.000518,0.406695,0.000761,0.406695,0.999475,0.389268,0.999232,0.33388,0.000518,0.351307,0.000761,0.351307,0.999476,0.33388,0.999232,0.186179,0.000518,0.203606,0.000761,0.203606,0.999476,0.186179,0.999232,0.112328,0.000518,0.129755,0.000761,0.129755,0.999477,0.112328,0.999233,0.426194,0.000518,0.44362,0.000761,0.44362,0.999475,0.426194,0.999232,0.01967,0.000518,0.037097,0.000767,0.036752,0.999481,0.019325,0.999232,0.518507,0.000518,0.535934,0.000761,0.535934,0.999474,0.518507,0.999231,0.278492,0.000518,0.295919,0.000761,0.295919,0.999476,0.278492,0.999232,0.296955,0.000518,0.314382,0.000761,0.314382,0.999476,0.296955,0.999232,0.26003,0.000518,0.277456,0.000761,0.277456,0.999476,0.26003,0.999232,0.444656,0.000518,0.462083,0.000761,0.462083,0.999475,0.444656,0.999232,0.038478,0.000518,0.055904,0.000767,0.055559,0.99948,0.038133,0.99923,0.53697,0.000518,0.554396,0.000761,0.554396,0.999474,0.53697,0.999231,0.093866,0.000518,0.111292,0.000761,0.111292,0.999477,0.093866,0.999234,0.241567,0.000518,0.258994,0.000761,0.258994,0.999476,0.241567,0.999232,0.481582,0.000518,0.499008,0.000761,0.499008,0.999475,0.481582,0.999232,0.352343,0.000518,0.36977,0.000761,0.36977,0.999475,0.352343,0.999232,0.370806,0.000518,0.388232,0.000761,0.388232,0.999475,0.370806,0.999232,0.075403,0.000518,0.09283,0.000761,0.09283,0.999478,0.075403,0.999235,0.407731,0.000518,0.425158,0.000761,0.425158,0.999475,0.407731,0.999232,0.315418,0.000518,0.332844,0.000761,0.332844,0.999476,0.315418,0.999232,0.573895,0.000518,0.591322,0.000761,0.591322,0.999473,0.573895,0.999229,0.204642,0.000518,0.222068,0.000761,0.222068,0.999476,0.204642,0.999232,0.500044,0.000518,0.517471,0.000761,0.517471,0.999475,0.500044,0.999231,0.149254,0.000518,0.16668,0.000761,0.16668,0.999476,0.149254,0.999233]],
    "faces": [43,0,1,3,2,0,0,1,2,3,0,1,2,3,43,2,3,5,4,0,4,5,6,7,3,2,4,5,43,4,5,7,6,0,8,9,10,11,5,4,6,7,43,6,7,9,8,0,12,13,14,15,7,6,8,9,43,8,9,11,10,0,16,17,18,19,9,8,10,11,43,10,11,13,12,0,20,21,22,23,11,10,12,13,43,12,13,15,14,0,24,25,26,27,13,12,14,15,43,14,15,17,16,0,28,29,30,31,15,14,16,17,43,16,17,19,18,0,32,33,34,35,17,16,18,19,43,18,19,21,20,0,36,37,38,39,19,18,20,21,43,20,21,23,22,0,40,41,42,43,21,20,22,23,43,22,23,25,24,0,44,45,46,47,23,22,24,25,43,24,25,27,26,0,48,49,50,51,25,24,26,27,43,26,27,29,28,0,52,53,54,55,27,26,28,29,43,28,29,31,30,0,56,57,58,59,29,28,30,31,43,30,31,33,32,0,60,61,62,63,31,30,32,33,43,32,33,35,34,0,64,65,66,67,33,32,34,35,43,34,35,37,36,0,68,69,70,71,35,34,36,37,43,36,37,39,38,0,72,73,74,75,37,36,38,39,43,38,39,41,40,0,76,77,78,79,39,38,40,41,43,40,41,43,42,0,80,81,82,83,41,40,42,43,43,42,43,45,44,0,84,85,86,87,43,42,44,45,43,44,45,47,46,0,88,89,90,91,45,44,46,47,43,46,47,49,48,0,92,93,94,95,47,46,48,49,43,48,49,51,50,0,96,97,98,99,49,48,50,51,43,50,51,53,52,0,100,101,102,103,51,50,52,53,43,52,53,55,54,0,104,105,106,107,53,52,54,55,43,54,55,57,56,0,108,109,110,111,55,54,56,57,43,56,57,59,58,0,112,113,114,115,57,56,58,59,43,58,59,61,60,0,116,117,118,119,59,58,60,61,43,13,11,69,70,0,120,121,122,123,12,10,62,63,43,1,0,62,63,0,126,127,124,125,1,0,64,65,43,60,61,63,62,0,128,129,130,131,61,60,65,64,42,62,0,2,0,163,132,133,64,0,3,42,2,4,6,0,133,134,135,3,5,7,42,6,8,10,0,135,136,137,7,9,11,42,10,12,14,0,137,138,139,11,13,15,42,14,16,18,0,139,140,141,15,17,19,42,18,20,22,0,141,142,143,19,21,23,42,22,24,26,0,143,144,145,23,25,27,42,26,28,30,0,145,146,147,27,29,31,42,30,32,34,0,147,148,149,31,33,35,42,34,36,38,0,149,150,151,35,37,39,42,38,40,42,0,151,152,153,39,41,43,42,42,44,46,0,153,154,155,43,45,47,42,46,48,50,0,155,156,157,47,49,51,42,50,52,54,0,157,158,159,51,53,55,42,54,56,58,0,159,160,161,55,57,59,42,58,60,62,0,161,162,163,59,61,64,42,62,2,6,0,163,133,135,64,3,7,42,6,10,14,0,135,137,139,7,11,15,42,14,18,22,0,139,141,143,15,19,23,42,22,26,30,0,143,145,147,23,27,31,42,30,34,38,0,147,149,151,31,35,39,42,38,42,46,0,151,153,155,39,43,47,42,46,50,54,0,155,157,159,47,51,55,42,54,58,62,0,159,161,163,55,59,64,42,62,6,14,0,163,135,139,64,7,15,42,14,22,30,0,139,143,147,15,23,31,42,30,38,46,0,147,151,155,31,39,47,42,46,54,62,0,155,159,163,47,55,64,42,62,14,30,0,163,139,147,64,15,31,42,30,46,62,0,147,155,163,31,47,64,42,66,64,65,0,195,164,165,66,67,68,42,65,95,94,0,165,166,167,68,69,70,42,94,93,92,0,167,168,169,70,71,72,42,92,91,90,0,169,170,171,72,73,74,42,90,89,88,0,171,172,173,74,75,76,42,88,87,86,0,173,174,175,76,77,78,42,86,85,84,0,175,176,177,78,79,80,42,84,83,82,0,177,178,179,80,81,82,42,82,81,80,0,179,180,181,82,83,84,42,80,79,78,0,181,182,183,84,85,86,42,78,77,76,0,183,184,185,86,87,88,42,76,75,74,0,185,186,187,88,89,90,42,74,73,72,0,187,188,189,90,91,92,42,72,71,70,0,189,190,191,92,93,63,42,70,69,68,0,191,192,193,63,62,94,42,68,67,66,0,193,194,195,94,95,66,42,66,65,94,0,195,165,167,66,68,70,42,94,92,90,0,167,169,171,70,72,74,42,90,88,86,0,171,173,175,74,76,78,42,86,84,82,0,175,177,179,78,80,82,42,82,80,78,0,179,181,183,82,84,86,42,78,76,74,0,183,185,187,86,88,90,42,74,72,70,0,187,189,191,90,92,63,42,70,68,66,0,191,193,195,63,94,66,42,66,94,90,0,195,167,171,66,70,74,42,90,86,82,0,171,175,179,74,78,82,42,82,78,74,0,179,183,187,82,86,90,42,74,70,66,0,187,191,195,90,63,66,42,66,90,82,0,195,171,179,66,74,82,42,82,74,66,0,179,187,195,82,90,66,43,31,29,78,79,0,196,197,198,199,30,28,86,85,43,49,47,87,88,0,200,201,202,203,48,46,77,76,43,5,3,64,66,0,204,205,206,207,4,2,67,66,43,23,21,74,75,0,208,209,210,211,22,20,90,89,43,41,39,83,84,0,212,213,214,215,40,38,81,80,43,59,57,92,93,0,216,217,218,219,58,56,72,71,43,15,13,70,71,0,220,221,222,223,14,12,63,93,43,33,31,79,80,0,224,225,226,227,32,30,85,84,43,51,49,88,89,0,228,229,230,231,50,48,76,75,43,7,5,66,67,0,232,233,234,235,6,4,66,95,43,25,23,75,76,0,236,237,238,239,24,22,89,88,43,43,41,84,85,0,240,241,242,243,42,40,80,79,43,61,59,93,94,0,244,245,246,247,60,58,71,70,43,17,15,71,72,0,248,249,250,251,16,14,93,92,43,35,33,80,81,0,252,253,254,255,34,32,84,83,43,53,51,89,90,0,256,257,258,259,52,50,75,74,43,9,7,67,68,0,260,261,262,263,8,6,95,94,43,27,25,76,77,0,264,265,266,267,26,24,88,87,43,45,43,85,86,0,268,269,270,271,44,42,79,78,43,63,61,94,95,0,272,273,274,275,65,60,70,69,43,19,17,72,73,0,276,277,278,279,18,16,92,91,43,37,35,81,82,0,280,281,282,283,36,34,83,82,43,55,53,90,91,0,284,285,286,287,54,52,74,73,43,11,9,68,69,0,288,289,290,291,10,8,94,62,43,29,27,77,78,0,292,293,294,295,28,26,87,86,43,47,45,86,87,0,296,297,298,299,46,44,78,77,43,3,1,65,64,0,300,301,302,303,2,1,68,67,43,1,63,95,65,0,304,305,306,307,1,65,69,68,43,21,19,73,74,0,308,309,310,311,20,18,91,90,43,39,37,82,83,0,312,313,314,315,38,36,82,81,43,57,55,91,92,0,316,317,318,319,56,54,73,72],
    "metadata": {
        "vertices": 96,
        "version": 3,
        "type": "Geometry",
        "faces": 124,
        "uvs": 1,
        "normals": 96,
        "materials": 1,
        "generator": "io_three"
    }
}